[gd_resource type="Environment" load_steps=2 format=2]

[sub_resource type="ProceduralSky" id=1]

[resource]
background_mode = 2
background_sky = SubResource( 1 )
glow_intensity = 1.5
glow_strength = 1.3
glow_blend_mode = 1
glow_hdr_threshold = 0.9
glow_bicubic_upscale = true
