[gd_scene load_steps=10 format=2]

[ext_resource path="res://characters/Player.tscn" type="PackedScene" id=1]
[ext_resource path="res://overworld/overworld_tileset.tres" type="TileSet" id=2]
[ext_resource path="res://assets/puzzle/Puzzle_1.tscn" type="PackedScene" id=3]
[ext_resource path="res://overworld/tilesheet_complete.png" type="Texture" id=4]
[ext_resource path="res://overworld/InteractablePuzzle.tscn" type="PackedScene" id=5]
[ext_resource path="res://items/fuse/Fuse.tscn" type="PackedScene" id=6]
[ext_resource path="res://ui/world_overlay/world_overlay.tscn" type="PackedScene" id=7]

[sub_resource type="CapsuleShape2D" id=1]
radius = 20.0
height = 35.0

[sub_resource type="CapsuleShape2D" id=2]
radius = 20.0
height = 35.0

[node name="Overworld" type="Node2D"]

[node name="WorldOverlay" parent="." instance=ExtResource( 7 )]
layer = 128

[node name="Ground" type="TileMap" parent="."]
tile_set = ExtResource( 2 )
format = 1
tile_data = PoolIntArray( -327687, 3, 3, -327686, 3, 0, -327685, 3, 3, -327684, 3, 1, -327683, 3, 1, -327682, 3, 0, -327681, 3, 0, -393216, 3, 2, -393215, 3, 3, -393214, 3, 0, -393213, 3, 1, -393212, 3, 2, -393211, 3, 3, -393210, 3, 2, -393209, 3, 3, -393208, 3, 1, -393207, 3, 1, -393206, 3, 2, -393205, 3, 2, -393204, 3, 3, -393203, 3, 2, -393202, 3, 3, -393201, 3, 2, -393200, 3, 0, -393199, 3, 3, -393198, 3, 2, -393197, 3, 0, -393196, 3, 3, -393195, 3, 1, -393194, 3, 2, -393193, 3, 1, -262151, 3, 0, -262150, 3, 2, -262149, 3, 1, -262148, 3, 3, -262147, 3, 0, -262146, 3, 1, -262145, 3, 1, -327680, 3, 0, -327679, 3, 3, -327678, 3, 1, -327677, 3, 0, -327676, 3, 0, -327675, 3, 0, -327674, 3, 0, -327673, 3, 3, -327672, 3, 0, -327671, 3, 1, -327670, 3, 0, -327669, 3, 0, -327668, 3, 2, -327667, 3, 2, -327666, 3, 1, -327665, 3, 1, -327664, 3, 0, -327663, 3, 3, -327662, 3, 1, -327661, 3, 2, -327660, 3, 1, -327659, 3, 3, -327658, 3, 2, -327657, 3, 3, -196615, 3, 3, -196614, 3, 3, -196613, 3, 0, -196612, 3, 1, -196611, 3, 2, -196610, 3, 1, -196609, 3, 3, -262144, 3, 0, -262143, 3, 2, -262142, 3, 0, -262141, 3, 2, -262140, 3, 1, -262139, 3, 2, -262138, 3, 1, -262137, 3, 2, -262136, 3, 0, -262135, 3, 1, -262134, 3, 3, -262133, 3, 2, -262132, 3, 0, -262131, 3, 3, -262130, 3, 1, -262129, 3, 1, -262128, 3, 1, -262127, 3, 2, -262126, 3, 1, -262125, 3, 1, -262124, 3, 2, -262123, 3, 3, -262122, 3, 0, -262121, 3, 0, -131079, 3, 0, -131078, 3, 0, -131077, 3, 1, -131076, 3, 1, -131075, 3, 3, -131074, 3, 3, -131073, 3, 3, -196608, 3, 0, -196607, 3, 1, -196606, 3, 3, -196605, 3, 0, -196604, 3, 1, -196603, 3, 3, -196602, 3, 3, -196601, 3, 0, -196600, 3, 3, -196599, 3, 2, -196598, 3, 3, -196597, 3, 2, -196596, 3, 1, -196595, 3, 2, -196594, 3, 3, -196593, 3, 2, -196592, 3, 1, -196591, 3, 1, -196590, 3, 3, -196589, 3, 0, -196588, 3, 3, -196587, 3, 0, -196586, 3, 3, -196585, 3, 3, -65543, 3, 3, -65542, 3, 3, -65541, 3, 1, -65540, 3, 3, -65539, 3, 1, -65538, 3, 1, -65537, 3, 3, -131072, 3, 1, -131071, 3, 2, -131070, 3, 2, -131069, 3, 1, -131068, 3, 1, -131067, 3, 1, -131066, 3, 0, -131065, 3, 1, -131064, 3, 3, -131063, 3, 1, -131062, 3, 2, -131061, 3, 2, -131060, 3, 0, -131059, 3, 1, -131058, 3, 2, -131057, 3, 2, -131056, 3, 1, -131055, 3, 2, -131054, 3, 0, -131053, 3, 2, -131052, 3, 0, -131051, 3, 2, -131050, 3, 1, -131049, 3, 2, -7, 3, 3, -6, 3, 3, -5, 3, 1, -4, 3, 1, -3, 3, 0, -2, 3, 2, -1, 3, 0, -65536, 3, 1, -65535, 3, 0, -65534, 3, 1, -65533, 3, 0, -65532, 3, 1, -65531, 3, 3, -65530, 3, 1, -65529, 3, 3, -65528, 3, 1, -65527, 3, 0, -65526, 3, 1, -65525, 3, 0, -65524, 3, 2, -65523, 3, 2, -65522, 3, 2, -65521, 3, 1, -65520, 3, 2, -65519, 3, 0, -65518, 3, 1, -65517, 3, 0, -65516, 3, 1, -65515, 3, 3, -65514, 3, 0, -65513, 3, 2, 65529, 3, 3, 65530, 3, 2, 65531, 3, 2, 65532, 3, 3, 65533, 3, 2, 65534, 3, 3, 65535, 3, 3, 0, 3, 0, 1, 3, 2, 2, 3, 3, 3, 3, 3, 4, 3, 2, 5, 3, 2, 6, 3, 3, 7, 3, 0, 8, 3, 1, 9, 3, 2, 10, 3, 0, 11, 3, 2, 12, 3, 1, 13, 3, 0, 14, 3, 3, 15, 3, 2, 16, 3, 0, 17, 3, 0, 18, 3, 0, 19, 3, 1, 20, 3, 2, 21, 3, 0, 22, 3, 2, 23, 3, 3, 131065, 3, 2, 131066, 3, 1, 131067, 3, 2, 131068, 3, 1, 131069, 3, 1, 131070, 3, 0, 131071, 3, 3, 65536, 3, 2, 65537, 3, 0, 65538, 3, 2, 65539, 3, 2, 65540, 3, 2, 65541, 3, 3, 65542, 3, 2, 65543, 3, 2, 65544, 3, 2, 65545, 3, 1, 65546, 3, 0, 65547, 3, 2, 65548, 3, 1, 65549, 3, 3, 65550, 3, 2, 65551, 3, 0, 65552, 3, 0, 65553, 3, 0, 65554, 3, 3, 65555, 3, 3, 65556, 3, 2, 65557, 3, 0, 65558, 3, 2, 65559, 3, 0, 196601, 3, 0, 196602, 3, 2, 196603, 3, 0, 196604, 3, 1, 196605, 3, 1, 196606, 3, 1, 196607, 3, 2, 131072, 3, 0, 131073, 3, 3, 131074, 3, 0, 131075, 3, 2, 131076, 3, 2, 131077, 3, 0, 131078, 3, 1, 131079, 3, 3, 131080, 3, 2, 131081, 3, 0, 131082, 3, 1, 131083, 3, 3, 131084, 3, 3, 131085, 3, 1, 131086, 3, 1, 131087, 3, 2, 131088, 3, 2, 131089, 3, 0, 131090, 3, 2, 131091, 3, 0, 131092, 3, 1, 131093, 3, 0, 131094, 3, 1, 131095, 3, 3, 262137, 3, 1, 262138, 3, 3, 262139, 3, 0, 262140, 3, 1, 262141, 3, 1, 262142, 3, 2, 262143, 3, 0, 196608, 3, 0, 196609, 3, 2, 196610, 3, 3, 196611, 4, 1, 196612, 4, 1, 196613, 4, 0, 196614, 4, 1, 196615, 4, 0, 196616, 4, 1, 196617, 3, 0, 196618, 3, 0, 196619, 3, 3, 196620, 3, 3, 196621, 3, 0, 196622, 3, 1, 196623, 3, 2, 196624, 3, 3, 196625, 3, 1, 196626, 3, 2, 196627, 3, 1, 196628, 3, 1, 196629, 3, 2, 196630, 3, 3, 196631, 3, 0, 327673, 3, 0, 327674, 3, 0, 327675, 3, 2, 327676, 3, 0, 327677, 3, 3, 327678, 3, 2, 327679, 3, 1, 262144, 3, 3, 262145, 3, 3, 262146, 3, 3, 262147, 3, 0, 262148, 3, 3, 262149, 3, 0, 262150, 3, 0, 262151, 3, 2, 262152, 3, 1, 262153, 3, 3, 262154, 3, 0, 262155, 3, 1, 262156, 3, 2, 262157, 3, 0, 262158, 3, 1, 262159, 3, 1, 262160, 3, 3, 262161, 3, 1, 262162, 3, 2, 262163, 3, 1, 262164, 3, 2, 262165, 3, 3, 262166, 3, 1, 262167, 3, 2, 393209, 3, 3, 393210, 3, 0, 393211, 3, 3, 393212, 3, 0, 393213, 3, 3, 393214, 3, 0, 393215, 3, 2, 327680, 3, 0, 327681, 3, 3, 327682, 3, 1, 327683, 3, 3, 327684, 3, 2, 327685, 3, 0, 327686, 3, 0, 327687, 3, 3, 327688, 3, 3, 327689, 3, 2, 327690, 3, 2, 327691, 3, 1, 327692, 3, 3, 327693, 3, 0, 327694, 3, 2, 327695, 3, 3, 327696, 3, 0, 327697, 3, 0, 327698, 3, 3, 327699, 3, 3, 327700, 3, 3, 327701, 3, 1, 327702, 3, 1, 327703, 3, 0, 458745, 3, 3, 458746, 3, 0, 458747, 3, 2, 458748, 3, 0, 458749, 3, 3, 458750, 3, 2, 458751, 3, 3, 393216, 3, 3, 393217, 3, 0, 393218, 3, 2, 393219, 3, 1, 393220, 3, 3, 393221, 3, 1, 393222, 3, 3, 393223, 3, 1, 393224, 3, 2, 393225, 3, 0, 393226, 3, 0, 393227, 3, 2, 393228, 3, 1, 393229, 3, 3, 393230, 3, 2, 393231, 3, 3, 393232, 3, 3, 393233, 3, 2, 393234, 3, 2, 393235, 3, 1, 393236, 3, 0, 393237, 3, 1, 393238, 3, 1, 393239, 3, 0, 524281, 3, 1, 524282, 3, 2, 524283, 3, 0, 524284, 3, 1, 524285, 3, 3, 524286, 3, 3, 524287, 3, 2, 458752, 3, 3, 458753, 3, 2, 458754, 3, 1, 458755, 3, 3, 458756, 3, 2, 458757, 3, 0, 458758, 3, 1, 458759, 3, 1, 458760, 3, 3, 458761, 3, 3, 458762, 3, 3, 458763, 3, 3, 458764, 3, 3, 458765, 3, 1, 458766, 3, 1, 458767, 3, 3, 458768, 3, 1, 458769, 3, 0, 458770, 3, 0, 458771, 3, 1, 458772, 3, 2, 458773, 3, 0, 458774, 3, 2, 458775, 3, 1, 589817, 3, 2, 589818, 3, 0, 589819, 3, 3, 589820, 3, 0, 589821, 3, 3, 589822, 3, 1, 589823, 3, 1, 524288, 3, 2, 524289, 3, 3, 524290, 3, 3, 524291, 3, 0, 524292, 3, 3, 524293, 3, 2, 524294, 3, 1, 524295, 3, 0, 524296, 3, 3, 524297, 3, 3, 524298, 3, 0, 524299, 3, 0, 524300, 3, 1, 524301, 3, 2, 524302, 3, 1, 524303, 3, 0, 524304, 3, 1, 524305, 3, 3, 524306, 3, 1, 524307, 3, 2, 524308, 3, 1, 524309, 3, 0, 524310, 3, 2, 524311, 3, 0, 655353, 3, 1, 655354, 3, 2, 655355, 3, 1, 655356, 3, 1, 655357, 3, 2, 655358, 3, 1, 655359, 3, 1, 589824, 3, 0, 589825, 3, 3, 589826, 3, 3, 589827, 3, 0, 589828, 3, 3, 589829, 3, 3, 589830, 3, 3, 589831, 3, 2, 589832, 3, 3, 589833, 3, 0, 589834, 3, 0, 589835, 3, 2, 589836, 3, 3, 589837, 3, 1, 589838, 3, 0, 589839, 3, 2, 589840, 3, 2, 589841, 3, 3, 589842, 3, 0, 589843, 3, 3, 589844, 3, 2, 589845, 3, 1, 589846, 3, 3, 589847, 3, 3, 720889, 3, 0, 720890, 3, 3, 720891, 3, 1, 720892, 3, 0, 720893, 3, 2, 720894, 3, 3, 720895, 3, 3, 655360, 3, 3, 655361, 3, 1, 655362, 3, 1, 655363, 3, 3, 655364, 3, 3, 655365, 3, 0, 655366, 3, 3, 655367, 3, 2, 655368, 3, 1, 655369, 3, 2, 655370, 3, 0, 655371, 3, 1, 655372, 3, 3, 655373, 3, 2, 655374, 3, 2, 655375, 3, 1, 655376, 3, 2, 655377, 3, 0, 655378, 3, 0, 655379, 3, 1, 655380, 3, 1, 655381, 3, 0, 655382, 3, 3, 655383, 3, 2, 786425, 3, 2, 786426, 3, 3, 786427, 3, 1, 786428, 3, 3, 786429, 3, 2, 786430, 3, 2, 786431, 3, 3, 720896, 3, 1, 720897, 3, 3, 720898, 3, 1, 720899, 3, 0, 720900, 3, 2, 720901, 3, 1, 720902, 3, 2, 720903, 3, 0, 720904, 3, 2, 720905, 3, 3, 720906, 3, 1, 720907, 3, 3, 720908, 3, 2, 720909, 3, 3, 720910, 3, 1, 720911, 3, 3, 720912, 3, 2, 720913, 3, 3, 720914, 3, 0, 720915, 3, 2, 720916, 3, 2, 720917, 3, 2, 720918, 3, 3, 720919, 3, 3, 851961, 3, 2, 851962, 3, 3, 851963, 3, 1, 851964, 3, 3, 851965, 3, 3, 851966, 3, 2, 851967, 3, 0, 786432, 3, 1, 786433, 3, 0, 786434, 3, 2, 786435, 3, 0, 786436, 3, 2, 786437, 3, 2, 786438, 3, 1, 786439, 3, 0, 786440, 3, 3, 786441, 3, 3, 786442, 3, 0, 786443, 3, 2, 786444, 3, 0, 786445, 3, 2, 786446, 3, 0, 786447, 3, 2, 786448, 3, 3, 786449, 3, 3, 786450, 3, 2, 786451, 3, 3, 786452, 3, 1, 786453, 3, 0, 786454, 3, 1, 786455, 3, 3, 917497, 3, 2, 917498, 3, 2, 917499, 3, 2, 917500, 3, 1, 917501, 3, 1, 917502, 3, 2, 917503, 3, 3, 851968, 3, 3, 851969, 3, 0, 851970, 3, 3, 851971, 3, 0, 851972, 3, 3, 851973, 3, 1, 851974, 3, 1, 851975, 3, 1, 851976, 3, 2, 851977, 3, 2, 851978, 3, 2, 851979, 3, 0, 851980, 3, 1, 851981, 3, 2, 851982, 3, 3, 851983, 3, 2, 851984, 3, 3, 851985, 3, 3, 851986, 3, 1, 851987, 3, 3, 851988, 3, 0, 851989, 3, 0, 851990, 3, 0, 851991, 3, 2, 983033, 3, 0, 983034, 3, 0, 983035, 3, 3, 983036, 3, 1, 983037, 3, 3, 983038, 3, 3, 983039, 3, 2, 917504, 3, 3, 917505, 3, 1, 917506, 3, 2, 917507, 3, 2, 917508, 3, 3, 917509, 3, 1, 917510, 3, 0, 917511, 3, 0, 917512, 3, 2, 917513, 3, 1, 917514, 3, 2, 917515, 3, 3, 917516, 3, 3, 917517, 3, 2, 917518, 3, 3, 917519, 3, 1, 917520, 3, 1, 917521, 3, 1, 917522, 3, 1, 917523, 3, 3, 917524, 3, 0, 917525, 3, 2, 917526, 3, 0, 917527, 3, 1, 1048569, 3, 1, 1048570, 3, 1, 1048571, 3, 2, 1048572, 3, 0, 1048573, 3, 2, 1048574, 3, 3, 1048575, 3, 0, 983040, 3, 0, 983041, 3, 3, 983042, 3, 3, 983043, 3, 3, 983044, 3, 3, 983045, 3, 0, 983046, 3, 2, 983047, 3, 0, 983048, 3, 2, 983049, 3, 3, 983050, 3, 0, 983051, 3, 1, 983052, 3, 2, 983053, 3, 1, 983054, 3, 1, 983055, 3, 1, 983056, 3, 2, 983057, 3, 2, 983058, 3, 1, 983059, 3, 2, 983060, 3, 1, 983061, 3, 3, 983062, 3, 2, 983063, 3, 1, 1114105, 3, 1, 1114106, 3, 0, 1114107, 3, 1, 1114108, 3, 1, 1114109, 3, 2, 1114110, 3, 1, 1114111, 3, 1, 1048576, 3, 2, 1048577, 3, 2, 1048578, 3, 2, 1048579, 3, 3, 1048580, 3, 3, 1048581, 3, 1, 1048582, 3, 3, 1048583, 3, 1, 1048584, 3, 2, 1048585, 3, 1, 1048586, 3, 2, 1048587, 3, 1, 1048588, 3, 2, 1048589, 3, 1, 1048590, 3, 2, 1048591, 3, 1, 1048592, 3, 1, 1048593, 3, 1, 1048594, 3, 2, 1048595, 3, 1, 1048596, 3, 0, 1048597, 3, 0, 1048598, 3, 1, 1048599, 3, 3 )

[node name="Walls" type="TileMap" parent="."]
tile_set = ExtResource( 2 )
format = 1
tile_data = PoolIntArray( 65537, 1, 7, 65538, 1, 196612, 65539, 1, 196612, 65540, 1, 196612, 65541, 1, 196612, 65542, 1, 196612, 65543, 1, 196612, 65544, 1, 196612, 65545, 1, 196612, 65546, 1, 8, 65548, 1, 7, 65549, 1, 196612, 65550, 1, 196612, 65551, 1, 8, 131073, 1, 131076, 131074, 1, 131072, 131075, 1, 196613, 131076, 1, 196613, 131077, 1, 196613, 131078, 1, 196613, 131079, 1, 196613, 131080, 1, 196613, 131081, 1, 131073, 131082, 1, 196608, 131083, 1, 196612, 131084, 1, 196609, 131085, 1, 131078, 131086, 1, 131078, 131087, 1, 131077, 196609, 1, 131076, 196610, 1, 131077, 196617, 1, 131076, 196618, 1, 131078, 196619, 1, 131078, 196620, 1, 131078, 196621, 1, 131078, 196622, 1, 131078, 196623, 1, 131077, 262145, 1, 131076, 262146, 1, 196608, 262147, 1, 196612, 262148, 1, 196612, 262149, 1, 196612, 262150, 1, 196612, 262151, 1, 196612, 262152, 1, 196612, 262153, 1, 196609, 262154, 1, 131072, 262155, 1, 196613, 262156, 1, 131073, 262157, 1, 131078, 262158, 1, 131078, 262159, 1, 131077, 327681, 1, 65543, 327682, 1, 196613, 327683, 1, 196613, 327684, 1, 196613, 327685, 1, 196613, 327686, 1, 196613, 327687, 1, 196613, 327688, 1, 196613, 327689, 1, 196613, 327690, 1, 65544, 327692, 1, 131076, 327693, 1, 131078, 327694, 1, 131078, 327695, 1, 131077, 393228, 1, 131076, 393229, 1, 131078, 393230, 1, 131078, 393231, 1, 131077, 458764, 1, 131076, 458765, 1, 131078, 458766, 1, 131078, 458767, 1, 131077, 524300, 1, 65543, 524301, 1, 196613, 524302, 1, 196613, 524303, 1, 65544 )

[node name="Props" type="TileMap" parent="."]
tile_set = ExtResource( 2 )
format = 1

[node name="Items" type="Node2D" parent="."]

[node name="Fuse" parent="Items" instance=ExtResource( 6 )]
position = Vector2( 741.316, 220.649 )

[node name="Player" parent="." instance=ExtResource( 1 )]
position = Vector2( 512, 300 )

[node name="StaticBody2D" type="StaticBody2D" parent="."]
position = Vector2( 935.8, 232.47 )

[node name="CollisionShape2D" type="CollisionShape2D" parent="StaticBody2D"]
position = Vector2( 12.1838, -0.529724 )
shape = SubResource( 1 )

[node name="Sprite" type="Sprite" parent="StaticBody2D"]
rotation = -1.5708
texture = ExtResource( 4 )
region_enabled = true
region_rect = Rect2( 1660, 580, 70, 60 )

[node name="InteractablePuzzle" parent="StaticBody2D" instance=ExtResource( 5 )]
puzzle = ExtResource( 3 )

[node name="CollisionShape2D" type="CollisionShape2D" parent="StaticBody2D/InteractablePuzzle"]
position = Vector2( 12.7279, -0.353546 )
shape = SubResource( 2 )
