[gd_resource type="TileSet" load_steps=30 format=2]

[ext_resource path="res://overworld/tilesheet_complete.png" type="Texture" id=1]

[sub_resource type="ConvexPolygonShape2D" id=1]
points = PoolVector2Array( 48, 48, 16, 48, 16, 16, 48, 16 )

[sub_resource type="ConvexPolygonShape2D" id=2]
points = PoolVector2Array( 0, 64, 0, 64, 0, 0, 64, 0, 64, 16, 16, 16, 16, 64 )

[sub_resource type="ConvexPolygonShape2D" id=3]
points = PoolVector2Array( 64, 64, 48, 64, 48, 48, 64, 48 )

[sub_resource type="ConvexPolygonShape2D" id=4]
points = PoolVector2Array( 16, 64, 0, 64, 0, 48, 16, 48 )

[sub_resource type="ConvexPolygonShape2D" id=5]
points = PoolVector2Array( 0, 0, 0, 0, 64, 0, 64, 64, 48, 64, 48, 16, 0, 16 )

[sub_resource type="ConvexPolygonShape2D" id=6]
points = PoolVector2Array( 16, 0, 16, 48, 64, 48, 64, 64, 0, 64, 0, 0, 0, 0 )

[sub_resource type="ConvexPolygonShape2D" id=7]
points = PoolVector2Array( 64, 16, 48, 16, 48, 0, 64, 0 )

[sub_resource type="ConvexPolygonShape2D" id=8]
points = PoolVector2Array( 16, 16, 0, 16, 0, 0, 16, 0 )

[sub_resource type="ConvexPolygonShape2D" id=9]
points = PoolVector2Array( 0, 48, 0, 48, 48, 48, 48, 0, 64, 0, 64, 64, 0, 64 )

[sub_resource type="ConvexPolygonShape2D" id=10]
points = PoolVector2Array( 64, 16, 0, 16, 0, 0, 64, 0 )

[sub_resource type="ConvexPolygonShape2D" id=11]
points = PoolVector2Array( 64, 64, 0, 64, 0, 48, 64, 48 )

[sub_resource type="ConvexPolygonShape2D" id=12]
points = PoolVector2Array( 16, 64, 0, 64, 0, 0, 16, 0 )

[sub_resource type="ConvexPolygonShape2D" id=13]
points = PoolVector2Array( 64, 64, 48, 64, 48, 0, 64, 0 )

[sub_resource type="ConvexPolygonShape2D" id=14]
points = PoolVector2Array( 64, 16, 0, 16, 0, 0, 64, 0 )

[sub_resource type="ConvexPolygonShape2D" id=15]
points = PoolVector2Array( 16, 64, 0, 64, 0, 48, 16, 48 )

[sub_resource type="ConvexPolygonShape2D" id=16]
points = PoolVector2Array( 64, 64, 48, 64, 48, 48, 64, 48 )

[sub_resource type="ConvexPolygonShape2D" id=17]
points = PoolVector2Array( 16, 64, 0, 64, 0, 0, 16, 0 )

[sub_resource type="ConvexPolygonShape2D" id=18]
points = PoolVector2Array( 64, 16, 48, 16, 48, 0, 64, 0 )

[sub_resource type="ConvexPolygonShape2D" id=19]
points = PoolVector2Array( 64, 64, 48, 64, 48, 48, 64, 48 )

[sub_resource type="ConvexPolygonShape2D" id=20]
points = PoolVector2Array( 64, 16, 16, 16, 16, 64, 0, 64, 0, 0, 64, 0, 64, 0 )

[sub_resource type="ConvexPolygonShape2D" id=21]
points = PoolVector2Array( 0, 0, 0, 0, 64, 0, 64, 64, 48, 64, 48, 16, 0, 16 )

[sub_resource type="ConvexPolygonShape2D" id=22]
points = PoolVector2Array( 16, 0, 16, 48, 64, 48, 64, 64, 0, 64, 0, 0, 0, 0 )

[sub_resource type="ConvexPolygonShape2D" id=23]
points = PoolVector2Array( 0, 48, 0, 48, 48, 48, 48, 0, 64, 0, 64, 64, 0, 64 )

[sub_resource type="ConvexPolygonShape2D" id=24]
points = PoolVector2Array( 16, 64, 0, 64, 0, 0, 16, 0 )

[sub_resource type="ConvexPolygonShape2D" id=25]
points = PoolVector2Array( 64, 64, 48, 64, 48, 0, 64, 0 )

[sub_resource type="ConvexPolygonShape2D" id=26]
points = PoolVector2Array( 64, 16, 0, 16, 0, 0, 64, 0 )

[sub_resource type="ConvexPolygonShape2D" id=27]
points = PoolVector2Array( 64, 64, 0, 64, 0, 48, 64, 48 )

[sub_resource type="ConvexPolygonShape2D" id=28]
points = PoolVector2Array( 0, 0, 64, 0, 64, 64, 0, 64 )

[resource]
0/name = "toaster"
0/texture = ExtResource( 1 )
0/tex_offset = Vector2( 0, 0 )
0/modulate = Color( 1, 1, 1, 1 )
0/region = Rect2( 1600, 576, 64, 64 )
0/tile_mode = 0
0/occluder_offset = Vector2( 0, 0 )
0/navigation_offset = Vector2( 0, 0 )
0/shape_offset = Vector2( 0, 0 )
0/shape_transform = Transform2D( 1, 0, 0, 1, 0, 0 )
0/shape = SubResource( 1 )
0/shape_one_way = false
0/shape_one_way_margin = 1.0
0/shapes = [ {
"autotile_coord": Vector2( 0, 0 ),
"one_way": false,
"one_way_margin": 1.0,
"shape": SubResource( 1 ),
"shape_transform": Transform2D( 1, 0, 0, 1, 0, 0 )
} ]
0/z_index = 0
1/name = "wooden_building"
1/texture = ExtResource( 1 )
1/tex_offset = Vector2( 0, 0 )
1/modulate = Color( 1, 1, 1, 1 )
1/region = Rect2( 576, 256, 576, 384 )
1/tile_mode = 1
1/autotile/bitmask_mode = 1
1/autotile/bitmask_flags = [ Vector2( 0, 0 ), 176, Vector2( 0, 1 ), 50, Vector2( 0, 2 ), 255, Vector2( 0, 3 ), 507, Vector2( 0, 4 ), 442, Vector2( 0, 5 ), 190, Vector2( 1, 0 ), 152, Vector2( 1, 1 ), 26, Vector2( 1, 2 ), 447, Vector2( 1, 3 ), 510, Vector2( 1, 4 ), 250, Vector2( 1, 5 ), 187, Vector2( 2, 0 ), 56, Vector2( 2, 1 ), 146, Vector2( 2, 2 ), 191, Vector2( 2, 3 ), 251, Vector2( 2, 4 ), 434, Vector2( 2, 5 ), 182, Vector2( 3, 0 ), 184, Vector2( 3, 1 ), 178, Vector2( 3, 2 ), 506, Vector2( 3, 3 ), 446, Vector2( 3, 4 ), 218, Vector2( 3, 5 ), 155, Vector2( 4, 0 ), 58, Vector2( 4, 1 ), 154, Vector2( 4, 2 ), 438, Vector2( 4, 3 ), 504, Vector2( 4, 4 ), 440, Vector2( 4, 5 ), 62, Vector2( 5, 0 ), 24, Vector2( 5, 1 ), 144, Vector2( 5, 2 ), 219, Vector2( 5, 3 ), 63, Vector2( 5, 4 ), 248, Vector2( 5, 5 ), 59, Vector2( 6, 0 ), 18, Vector2( 6, 1 ), 48, Vector2( 6, 2 ), 511, Vector2( 6, 3 ), 16, Vector2( 6, 4 ), 443, Vector2( 6, 5 ), 254, Vector2( 7, 0 ), 432, Vector2( 7, 1 ), 54, Vector2( 7, 2 ), 186, Vector2( 7, 4 ), 8, Vector2( 8, 0 ), 216, Vector2( 8, 1 ), 27 ]
1/autotile/icon_coordinate = Vector2( 6, 3 )
1/autotile/tile_size = Vector2( 64, 64 )
1/autotile/spacing = 0
1/autotile/occluder_map = [  ]
1/autotile/navpoly_map = [  ]
1/autotile/priority_map = [  ]
1/autotile/z_index_map = [  ]
1/occluder_offset = Vector2( 0, 0 )
1/navigation_offset = Vector2( 0, 0 )
1/shape_offset = Vector2( 0, 0 )
1/shape_transform = Transform2D( 1, 0, 0, 1, 0, 0 )
1/shape = SubResource( 2 )
1/shape_one_way = false
1/shape_one_way_margin = 1.0
1/shapes = [ {
"autotile_coord": Vector2( 0, 0 ),
"one_way": false,
"one_way_margin": 1.0,
"shape": SubResource( 2 ),
"shape_transform": Transform2D( 1, 0, 0, 1, 0, 0 )
}, {
"autotile_coord": Vector2( 0, 0 ),
"one_way": false,
"one_way_margin": 1.0,
"shape": SubResource( 3 ),
"shape_transform": Transform2D( 1, 0, 0, 1, 0, 0 )
}, {
"autotile_coord": Vector2( 1, 0 ),
"one_way": false,
"one_way_margin": 1.0,
"shape": SubResource( 4 ),
"shape_transform": Transform2D( 1, 0, 0, 1, 0, 0 )
}, {
"autotile_coord": Vector2( 1, 0 ),
"one_way": false,
"one_way_margin": 1.0,
"shape": SubResource( 5 ),
"shape_transform": Transform2D( 1, 0, 0, 1, 0, 0 )
}, {
"autotile_coord": Vector2( 0, 1 ),
"one_way": false,
"one_way_margin": 1.0,
"shape": SubResource( 6 ),
"shape_transform": Transform2D( 1, 0, 0, 1, 0, 0 )
}, {
"autotile_coord": Vector2( 0, 1 ),
"one_way": false,
"one_way_margin": 1.0,
"shape": SubResource( 7 ),
"shape_transform": Transform2D( 1, 0, 0, 1, 0, 0 )
}, {
"autotile_coord": Vector2( 1, 1 ),
"one_way": false,
"one_way_margin": 1.0,
"shape": SubResource( 8 ),
"shape_transform": Transform2D( 1, 0, 0, 1, 0, 0 )
}, {
"autotile_coord": Vector2( 1, 1 ),
"one_way": false,
"one_way_margin": 1.0,
"shape": SubResource( 9 ),
"shape_transform": Transform2D( 1, 0, 0, 1, 0, 0 )
}, {
"autotile_coord": Vector2( 2, 0 ),
"one_way": false,
"one_way_margin": 1.0,
"shape": SubResource( 10 ),
"shape_transform": Transform2D( 1, 0, 0, 1, 0, 0 )
}, {
"autotile_coord": Vector2( 2, 0 ),
"one_way": false,
"one_way_margin": 1.0,
"shape": SubResource( 11 ),
"shape_transform": Transform2D( 1, 0, 0, 1, 0, 0 )
}, {
"autotile_coord": Vector2( 2, 1 ),
"one_way": false,
"one_way_margin": 1.0,
"shape": SubResource( 12 ),
"shape_transform": Transform2D( 1, 0, 0, 1, 0, 0 )
}, {
"autotile_coord": Vector2( 2, 1 ),
"one_way": false,
"one_way_margin": 1.0,
"shape": SubResource( 13 ),
"shape_transform": Transform2D( 1, 0, 0, 1, 0, 0 )
}, {
"autotile_coord": Vector2( 3, 0 ),
"one_way": false,
"one_way_margin": 1.0,
"shape": SubResource( 14 ),
"shape_transform": Transform2D( 1, 0, 0, 1, 0, 0 )
}, {
"autotile_coord": Vector2( 3, 0 ),
"one_way": false,
"one_way_margin": 1.0,
"shape": SubResource( 15 ),
"shape_transform": Transform2D( 1, 0, 0, 1, 0, 0 )
}, {
"autotile_coord": Vector2( 3, 0 ),
"one_way": false,
"one_way_margin": 1.0,
"shape": SubResource( 16 ),
"shape_transform": Transform2D( 1, 0, 0, 1, 0, 0 )
}, {
"autotile_coord": Vector2( 3, 1 ),
"one_way": false,
"one_way_margin": 1.0,
"shape": SubResource( 17 ),
"shape_transform": Transform2D( 1, 0, 0, 1, 0, 0 )
}, {
"autotile_coord": Vector2( 3, 1 ),
"one_way": false,
"one_way_margin": 1.0,
"shape": SubResource( 18 ),
"shape_transform": Transform2D( 1, 0, 0, 1, 0, 0 )
}, {
"autotile_coord": Vector2( 3, 1 ),
"one_way": false,
"one_way_margin": 1.0,
"shape": SubResource( 19 ),
"shape_transform": Transform2D( 1, 0, 0, 1, 0, 0 )
}, {
"autotile_coord": Vector2( 7, 0 ),
"one_way": false,
"one_way_margin": 1.0,
"shape": SubResource( 20 ),
"shape_transform": Transform2D( 1, 0, 0, 1, 0, 0 )
}, {
"autotile_coord": Vector2( 8, 0 ),
"one_way": false,
"one_way_margin": 1.0,
"shape": SubResource( 21 ),
"shape_transform": Transform2D( 1, 0, 0, 1, 0, 0 )
}, {
"autotile_coord": Vector2( 7, 1 ),
"one_way": false,
"one_way_margin": 1.0,
"shape": SubResource( 22 ),
"shape_transform": Transform2D( 1, 0, 0, 1, 0, 0 )
}, {
"autotile_coord": Vector2( 8, 1 ),
"one_way": false,
"one_way_margin": 1.0,
"shape": SubResource( 23 ),
"shape_transform": Transform2D( 1, 0, 0, 1, 0, 0 )
}, {
"autotile_coord": Vector2( 4, 2 ),
"one_way": false,
"one_way_margin": 1.0,
"shape": SubResource( 24 ),
"shape_transform": Transform2D( 1, 0, 0, 1, 0, 0 )
}, {
"autotile_coord": Vector2( 5, 2 ),
"one_way": false,
"one_way_margin": 1.0,
"shape": SubResource( 25 ),
"shape_transform": Transform2D( 1, 0, 0, 1, 0, 0 )
}, {
"autotile_coord": Vector2( 4, 3 ),
"one_way": false,
"one_way_margin": 1.0,
"shape": SubResource( 26 ),
"shape_transform": Transform2D( 1, 0, 0, 1, 0, 0 )
}, {
"autotile_coord": Vector2( 5, 3 ),
"one_way": false,
"one_way_margin": 1.0,
"shape": SubResource( 27 ),
"shape_transform": Transform2D( 1, 0, 0, 1, 0, 0 )
} ]
1/z_index = 0
2/name = "orange_building"
2/texture = ExtResource( 1 )
2/tex_offset = Vector2( 0, 0 )
2/modulate = Color( 1, 1, 1, 1 )
2/region = Rect2( 0, 256, 576, 384 )
2/tile_mode = 1
2/autotile/bitmask_mode = 0
2/autotile/bitmask_flags = [  ]
2/autotile/icon_coordinate = Vector2( 6, 3 )
2/autotile/tile_size = Vector2( 64, 64 )
2/autotile/spacing = 0
2/autotile/occluder_map = [  ]
2/autotile/navpoly_map = [  ]
2/autotile/priority_map = [  ]
2/autotile/z_index_map = [  ]
2/occluder_offset = Vector2( 0, 0 )
2/navigation_offset = Vector2( 0, 0 )
2/shape_offset = Vector2( 0, 0 )
2/shape_transform = Transform2D( 1, 0, 0, 1, 0, 0 )
2/shape_one_way = false
2/shape_one_way_margin = 0.0
2/shapes = [  ]
2/z_index = 0
3/name = "grass"
3/texture = ExtResource( 1 )
3/tex_offset = Vector2( 0, 0 )
3/modulate = Color( 1, 1, 1, 1 )
3/region = Rect2( 0, 0, 256, 64 )
3/tile_mode = 2
3/autotile/icon_coordinate = Vector2( 0, 0 )
3/autotile/tile_size = Vector2( 64, 64 )
3/autotile/spacing = 0
3/autotile/occluder_map = [  ]
3/autotile/navpoly_map = [  ]
3/autotile/priority_map = [  ]
3/autotile/z_index_map = [  ]
3/occluder_offset = Vector2( 0, 0 )
3/navigation_offset = Vector2( 0, 0 )
3/shape_offset = Vector2( 0, 0 )
3/shape_transform = Transform2D( 1, 0, 0, 1, 0, 0 )
3/shape_one_way = false
3/shape_one_way_margin = 0.0
3/shapes = [  ]
3/z_index = 0
4/name = "dirt"
4/texture = ExtResource( 1 )
4/tex_offset = Vector2( 0, 0 )
4/modulate = Color( 1, 1, 1, 1 )
4/region = Rect2( 256, 0, 128, 64 )
4/tile_mode = 2
4/autotile/icon_coordinate = Vector2( 0, 0 )
4/autotile/tile_size = Vector2( 64, 64 )
4/autotile/spacing = 0
4/autotile/occluder_map = [  ]
4/autotile/navpoly_map = [  ]
4/autotile/priority_map = [  ]
4/autotile/z_index_map = [  ]
4/occluder_offset = Vector2( 0, 0 )
4/navigation_offset = Vector2( 0, 0 )
4/shape_offset = Vector2( 0, 0 )
4/shape_transform = Transform2D( 1, 0, 0, 1, 0, 0 )
4/shape_one_way = false
4/shape_one_way_margin = 0.0
4/shapes = [  ]
4/z_index = 0
5/name = "tv"
5/texture = ExtResource( 1 )
5/tex_offset = Vector2( 0, 0 )
5/modulate = Color( 1, 1, 1, 1 )
5/region = Rect2( 1408, 1216, 64, 64 )
5/tile_mode = 0
5/occluder_offset = Vector2( 0, 0 )
5/navigation_offset = Vector2( 0, 0 )
5/shape_offset = Vector2( 0, 0 )
5/shape_transform = Transform2D( 1, 0, 0, 1, 0, 0 )
5/shape = SubResource( 28 )
5/shape_one_way = false
5/shape_one_way_margin = 1.0
5/shapes = [ {
"autotile_coord": Vector2( 0, 0 ),
"one_way": false,
"one_way_margin": 1.0,
"shape": SubResource( 28 ),
"shape_transform": Transform2D( 1, 0, 0, 1, 0, 0 )
} ]
5/z_index = 0
