[gd_scene load_steps=8 format=2]

[ext_resource path="res://assets/PropertyPath.gd" type="Script" id=1]
[ext_resource path="res://assets/puzzle/PuzzleTemplate.tscn" type="PackedScene" id=3]
[ext_resource path="res://assets/panel/lever_switch/lever_switch.tscn" type="PackedScene" id=6]
[ext_resource path="res://assets/panel/output/output.tscn" type="PackedScene" id=7]

[sub_resource type="Resource" id=3]
script = ExtResource( 1 )
path = NodePath("panel/top/output")
prop = "output_1"

[sub_resource type="Resource" id=1]
script = ExtResource( 1 )
path = NodePath("../../ground/lever_switch")
prop = "output_1"

[sub_resource type="Resource" id=2]
script = ExtResource( 1 )
path = NodePath("../../ground/lever_switch2")
prop = "output_1"

[node name="Puzzle" instance=ExtResource( 3 )]
inputs_1 = [ SubResource( 3 ) ]
always_input_2 = true

[node name="lever_switch" parent="panel/ground" index="0" instance=ExtResource( 6 )]
transform = Transform( -4.37114e-08, 0, -1, -1.49012e-08, 1, 1.77636e-15, 1, 0, -4.37114e-08, 0.5, 0, 0 )
always_input_1 = true

[node name="lever_switch2" parent="panel/ground" index="1" instance=ExtResource( 6 )]
transform = Transform( -4.37114e-08, 0, -1, -1.49012e-08, 1, 1.77636e-15, 1, 0, -4.37114e-08, -0.5, 0, 0 )
always_input_1 = true

[node name="output" parent="panel/top" index="0" instance=ExtResource( 7 )]
inputs_1 = [ SubResource( 1 ) ]
inputs_2 = [ SubResource( 2 ) ]
